R Seminar Part 1: Univariate Quantitative Data
…
The above command has read the CSV file into an object named Foobars. The <- arrow character points towards the object where the data is going. R has responded (white boxes) by telling us about the column specifications. Thats a bit complex, but it really means how R has interpreted the data in each column.

Now the object that the read_csv() function makes is a particular kind of object called a tibble. So Foobars is a tibble. I know that sounds a bit silly, but a tibble is a special kind of table (introduced in tidyverse) and designed for storing all kinds of data.

Its worth noting that we could have called the data object anything we want, but Foobars seems like a sensible name for the data in the CSV file.

3.2. Examine Tibble

Lets take a look at the Foobars tibble. To do that you can just type its name

Foobars

## # A tibble: 10,000 x 2
##    foobar `height (cm)`
##     <dbl>         <dbl>
##  1      1        0.430 
##  2      2        0.664 
##  3      3        0.139 
##  4      4        0.165 
##  5      5        0.0828
##  6      6        0.211 
##  7      7        0.347 
##  8      8        0.306 
##  9      9        0.408 
## 10     10        0.121 
## #  with 9,990 more rows
…
